{
  "chit chat,gulu gulu": -1,
  "bath,restroom,shower": -1,
  "beard": -1,
  "chill,relax,tea,coffee,soup,juice": -1,
  "dance,happy": -1,
  "dancing,enjoying,happy": -1,
  "game,play": -1,
  "hand,nail polish": -1,
  "hi,hello,greet,girl": -1,
  "hi,hello,greet,guy": -1,
  "hot,summer,sunny": -1,
  "hug,love": -1,
  "listening,hug": -1,
  "makup,beuty": -1,
  "mobile,hip,selfi": -1,
  "pimple,dull,boaring": -1,
  "please,kidd,child": -1,
  "sick,help": -1,
  "tea,coffee,soup": -1,
  "time,elbow": -1,
  "together,family": -1,
  "together,we": -1,
  "together,you": -1
}
