{
  "100": "&#x1f4af;",
  "1234": "&#x1f522;",
  "dark sunglasses": "&#x1f576;",
  "palm tree": "&#x1f334;",
  "face with thermometer": "&#x1f912;",
  "house": "&#x1f3e0;",
  "dart": "&#x1f3af;",
  "smile": "&#x1f604;",
  "laughing": "&#x1f606;",
  "blush": "&#x1f60a;",
  "smiley": "&#x1f603;",
  "relaxed": "&#x263a;",
  "smirk": "&#x1f60f;",
  "heart eyes": "&#x1f60d;",
  "kissing heart": "&#x1f618;",
  "kissing closed eyes": "&#x1f61a;",
  "flushed": "&#x1f633;",
  "relieved": "&#x1f60c;",
  "grin": "&#x1f601;",
  "wink": "&#x1f609;",
  "stuck out tongue winking eye": "&#x1f61c;",
  "stuck out tongue closed eyes": "&#x1f61d;",
  "grinning": "&#x1f600;",
  "kissing": "&#x1f617;",
  "kissing smiling eyes": "&#x1f619;",
  "stuck out tongue": "&#x1f61b;",
  "sleeping": "&#x1f634;",
  "worried": "&#x1f61f;",
  "frowning": "&#x1f626;",
  "anguished": "&#x1f627;",
  "open mouth": "&#x1f62e;",
  "grimacing": "&#x1f62c;",
  "confused": "&#x1f615;",
  "hushed": "&#x1f62f;",
  "expressionless": "&#x1f611;",
  "unamused": "&#x1f612;",
  "sweat smile": "&#x1f605;",
  "sweat": "&#x1f613;",
  "disappointed relieved": "&#x1f625;",
  "weary": "&#x1f629;",
  "pensive": "&#x1f614;",
  "disappointed": "&#x1f61e;",
  "confounded": "&#x1f616;",
  "fearful": "&#x1f628;",
  "cold sweat": "&#x1f630;",
  "persevere": "&#x1f623;",
  "cry": "&#x1f622;",
  "sob": "&#x1f62d;",
  "joy": "&#x1f602;",
  "astonished": "&#x1f632;",
  "scream": "&#x1f631;",
  "tired face": "&#x1f62b;",
  "angry": "&#x1f620;",
  "rage": "&#x1f621;",
  "triumph": "&#x1f624;",
  "sleepy": "&#x1f62a;",
  "yum": "&#x1f60b;",
  "mask": "&#x1f637;",
  "sunglasses": "&#x1f60e;",
  "dizzy face": "&#x1f635;",
  "imp": "&#x1f47f;",
  "smiling imp": "&#x1f608;",
  "neutral face": "&#x1f610;",
  "no mouth": "&#x1f636;",
  "innocent": "&#x1f607;",
  "alien": "&#x1f47d;",
  "yellow heart": "&#x1f49b;",
  "blue heart": "&#x1f499;",
  "purple heart": "&#x1f49c;",
  "heart": "&#x2764;",
  "green heart": "&#x1f49a;",
  "broken heart": "&#x1f494;",
  "heartbeat": "&#x1f493;",
  "heartpulse": "&#x1f497;",
  "two hearts": "&#x1f495;",
  "revolving hearts": "&#x1f49e;",
  "cupid": "&#x1f498;",
  "sparkling heart": "&#x1f496;",
  "sparkles": "&#x2728;",
  "star": "&#x2b50;",
  "star2": "&#x1f31f;",
  "dizzy": "&#x1f4ab;",
  "boom": "&#x1f4a5;",
  "anger": "&#x1f4a2;",
  "exclamation": "&#x2757;",
  "question": "&#x2753;",
  "grey exclamation": "&#x2755;",
  "grey question": "&#x2754;",
  "zzz": "&#x1f4a4;",
  "dash": "&#x1f4a8;",
  "sweat drops": "&#x1f4a6;",
  "notes": "&#x1f3b6;",
  "musical note": "&#x1f3b5;",
  "fire": "&#x1f525;",
  "hankey": "&#x1f4a9;",
  "+1": "&#x1f44d;",
  "-1": "&#x1f44e;",
  "ok hand": "&#x1f44c;",
  "fist oncoming": "&#x1f44a;",
  "fist raised": "&#x270a;",
  "v": "&#x270c;",
  "wave": "&#x1f44b;",
  "hand": "&#x270b;",
  "open hands": "&#x1f450;",
  "point up": "&#x261d;",
  "point down": "&#x1f447;",
  "point left": "&#x1f448;",
  "point right": "&#x1f449;",
  "raised hands": "&#x1f64c;",
  "pray": "&#x1f64f;",
  "point up 2": "&#x1f446;",
  "clap": "&#x1f44f;",
  "muscle": "&#x1f4aa;",
  "metal": "&#x1f918;",
  "middle finger": "&#x1f595;",
  "running man": "&#x1f3c3;",
  "couple": "&#x1f46b;",
  "family man woman boy": "&#x1f46a;",
  "two men holding hands": "&#x1f46c;",
  "two women holding hands": "&#x1f46d;",
  "dancer": "&#x1f483;",
  "dancing women": "&#x1f46f;",
  "ok woman": "&#x1f646;",
  "no good woman": "&#x1f645;",
  "tipping hand woman": "&#x1f481;",
  "raising hand woman": "&#x1f64b;",
  "bride with veil": "&#x1f470;",
  "pouting woman": "&#x1f64e;",
  "frowning woman": "&#x1f64d;",
  "bowing man": "&#x1f647;",
  "couple with heart woman man": "&#x1f491;",
  "massage woman": "&#x1f486;",
  "haircut woman": "&#x1f487;",
  "nail care": "&#x1f485;",
  "boy": "&#x1f466;",
  "girl": "&#x1f467;",
  "woman": "&#x1f469;",
  "man": "&#x1f468;",
  "baby": "&#x1f476;",
  "older woman": "&#x1f475;",
  "older man": "&#x1f474;",
  "blonde man": "&#x1f471;",
  "man with gua pi mao": "&#x1f472;",
  "man with turban": "&#x1f473;",
  "construction worker man": "&#x1f477;",
  "policeman": "&#x1f46e;",
  "angel": "&#x1f47c;",
  "princess": "&#x1f478;",
  "smiley cat": "&#x1f63a;",
  "smile cat": "&#x1f638;",
  "heart eyes cat": "&#x1f63b;",
  "kissing cat": "&#x1f63d;",
  "smirk cat": "&#x1f63c;",
  "scream cat": "&#x1f640;",
  "crying cat face": "&#x1f63f;",
  "joy cat": "&#x1f639;",
  "pouting cat": "&#x1f63e;",
  "japanese ogre": "&#x1f479;",
  "japanese goblin": "&#x1f47a;",
  "see no evil": "&#x1f648;",
  "hear no evil": "&#x1f649;",
  "speak no evil": "&#x1f64a;",
  "guardsman": "&#x1f482;",
  "skull": "&#x1f480;",
  "feet": "&#x1f43e;",
  "lips": "&#x1f444;",
  "kiss": "&#x1f48b;",
  "droplet": "&#x1f4a7;",
  "ear": "&#x1f442;",
  "eyes": "&#x1f440;",
  "nose": "&#x1f443;",
  "tongue": "&#x1f445;",
  "love letter": "&#x1f48c;",
  "bust in silhouette": "&#x1f464;",
  "busts in silhouette": "&#x1f465;",
  "speech balloon": "&#x1f4ac;",
  "thought balloon": "&#x1f4ad;",
  "sunny": "&#x2600;",
  "umbrella": "&#x2614;",
  "cloud": "&#x2601;",
  "snowflake": "&#x2744;",
  "snowman": "&#x26c4;",
  "zap": "&#x26a1;",
  "cyclone": "&#x1f300;",
  "foggy": "&#x1f301;",
  "ocean": "&#x1f30a;",
  "cat": "&#x1f431;",
  "dog": "&#x1f436;",
  "mouse": "&#x1f42d;",
  "hamster": "&#x1f439;",
  "rabbit": "&#x1f430;",
  "wolf": "&#x1f43a;",
  "frog": "&#x1f438;",
  "tiger": "&#x1f42f;",
  "koala": "&#x1f428;",
  "bear": "&#x1f43b;",
  "pig": "&#x1f437;",
  "pig nose": "&#x1f43d;",
  "cow": "&#x1f42e;",
  "boar": "&#x1f417;",
  "monkey face": "&#x1f435;",
  "monkey": "&#x1f412;",
  "horse": "&#x1f434;",
  "racehorse": "&#x1f40e;",
  "camel": "&#x1f42b;",
  "sheep": "&#x1f411;",
  "elephant": "&#x1f418;",
  "panda face": "&#x1f43c;",
  "snake": "&#x1f40d;",
  "bird": "&#x1f426;",
  "baby chick": "&#x1f424;",
  "hatched chick": "&#x1f425;",
  "hatching chick": "&#x1f423;",
  "chicken": "&#x1f414;",
  "penguin": "&#x1f427;",
  "turtle": "&#x1f422;",
  "bug": "&#x1f41b;",
  "bee": "&#x1f41d;",
  "ant": "&#x1f41c;",
  "beetle": "&#x1f41e;",
  "snail": "&#x1f40c;",
  "octopus": "&#x1f419;",
  "tropical fish": "&#x1f420;",
  "fish": "&#x1f41f;",
  "whale": "&#x1f433;",
  "whale2": "&#x1f40b;",
  "dolphin": "&#x1f42c;",
  "cow2": "&#x1f404;",
  "ram": "&#x1f40f;",
  "rat": "&#x1f400;",
  "water buffalo": "&#x1f403;",
  "tiger2": "&#x1f405;",
  "rabbit2": "&#x1f407;",
  "dragon": "&#x1f409;",
  "goat": "&#x1f410;",
  "rooster": "&#x1f413;",
  "dog2": "&#x1f415;",
  "pig2": "&#x1f416;",
  "mouse2": "&#x1f401;",
  "ox": "&#x1f402;",
  "dragon face": "&#x1f432;",
  "blowfish": "&#x1f421;",
  "crocodile": "&#x1f40a;",
  "dromedary camel": "&#x1f42a;",
  "leopard": "&#x1f406;",
  "cat2": "&#x1f408;",
  "poodle": "&#x1f429;",
  "bouquet": "&#x1f490;",
  "cherry blossom": "&#x1f338;",
  "tulip": "&#x1f337;",
  "four leaf clover": "&#x1f340;",
  "rose": "&#x1f339;",
  "sunflower": "&#x1f33b;",
  "hibiscus": "&#x1f33a;",
  "maple leaf": "&#x1f341;",
  "leaves": "&#x1f343;",
  "fallen leaf": "&#x1f342;",
  "herb": "&#x1f33f;",
  "mushroom": "&#x1f344;",
  "cactus": "&#x1f335;",
  "evergreen tree": "&#x1f332;",
  "deciduous tree": "&#x1f333;",
  "chestnut": "&#x1f330;",
  "seedling": "&#x1f331;",
  "blossom": "&#x1f33c;",
  "ear of rice": "&#x1f33e;",
  "shell": "&#x1f41a;",
  "globe with meridians": "&#x1f310;",
  "sun with face": "&#x1f31e;",
  "full moon with face": "&#x1f31d;",
  "new moon with face": "&#x1f31a;",
  "new moon": "&#x1f311;",
  "waxing crescent moon": "&#x1f312;",
  "first quarter moon": "&#x1f313;",
  "moon": "&#x1f314;",
  "full moon": "&#x1f315;",
  "waning gibbous moon": "&#x1f316;",
  "last quarter moon": "&#x1f317;",
  "waning crescent moon": "&#x1f318;",
  "last quarter moon with face": "&#x1f31c;",
  "first quarter moon with face": "&#x1f31b;",
  "crescent moon": "&#x1f319;",
  "earth africa": "&#x1f30d;",
  "earth americas": "&#x1f30e;",
  "earth asia": "&#x1f30f;",
  "volcano": "&#x1f30b;",
  "milky way": "&#x1f30c;",
  "partly sunny": "&#x26c5;",
  "bamboo": "&#x1f38d;",
  "gift heart": "&#x1f49d;",
  "dolls": "&#x1f38e;",
  "school satchel": "&#x1f392;",
  "mortar board": "&#x1f393;",
  "flags": "&#x1f38f;",
  "fireworks": "&#x1f386;",
  "sparkler": "&#x1f387;",
  "wind chime": "&#x1f390;",
  "rice scene": "&#x1f391;",
  "jack o lantern": "&#x1f383;",
  "ghost": "&#x1f47b;",
  "santa": "&#x1f385;",
  "christmas tree": "&#x1f384;",
  "gift": "&#x1f381;",
  "bell": "&#x1f514;",
  "no bell": "&#x1f515;",
  "tanabata tree": "&#x1f38b;",
  "tada": "&#x1f389;",
  "confetti ball": "&#x1f38a;",
  "balloon": "&#x1f388;",
  "crystal ball": "&#x1f52e;",
  "cd": "&#x1f4bf;",
  "dvd": "&#x1f4c0;",
  "floppy disk": "&#x1f4be;",
  "camera": "&#x1f4f7;",
  "video camera": "&#x1f4f9;",
  "movie camera": "&#x1f3a5;",
  "computer": "&#x1f4bb;",
  "tv": "&#x1f4fa;",
  "iphone": "&#x1f4f1;",
  "phone": "&#x260e;",
  "telephone receiver": "&#x1f4de;",
  "pager": "&#x1f4df;",
  "fax": "&#x1f4e0;",
  "minidisc": "&#x1f4bd;",
  "vhs": "&#x1f4fc;",
  "sound": "&#x1f509;",
  "speaker": "&#x1f508;",
  "mute": "&#x1f507;",
  "loudspeaker": "&#x1f4e2;",
  "mega": "&#x1f4e3;",
  "hourglass": "&#x231b;",
  "hourglass flowing sand": "&#x23f3;",
  "alarm clock": "&#x23f0;",
  "watch": "&#x231a;",
  "radio": "&#x1f4fb;",
  "satellite": "&#x1f4e1;",
  "loop": "&#x27bf;",
  "mag": "&#x1f50d;",
  "mag right": "&#x1f50e;",
  "unlock": "&#x1f513;",
  "lock": "&#x1f512;",
  "lock with ink pen": "&#x1f50f;",
  "closed lock with key": "&#x1f510;",
  "key": "&#x1f511;",
  "bulb": "&#x1f4a1;",
  "flashlight": "&#x1f526;",
  "high brightness": "&#x1f506;",
  "low brightness": "&#x1f505;",
  "electric plug": "&#x1f50c;",
  "battery": "&#x1f50b;",
  "calling": "&#x1f4f2;",
  "email": "&#x2709;",
  "mailbox": "&#x1f4eb;",
  "postbox": "&#x1f4ee;",
  "bath": "&#x1f6c0;",
  "bathtub": "&#x1f6c1;",
  "shower": "&#x1f6bf;",
  "toilet": "&#x1f6bd;",
  "wrench": "&#x1f527;",
  "nut and bolt": "&#x1f529;",
  "hammer": "&#x1f528;",
  "seat": "&#x1f4ba;",
  "moneybag": "&#x1f4b0;",
  "yen": "&#x1f4b4;",
  "dollar": "&#x1f4b5;",
  "pound": "&#x1f4b7;",
  "euro": "&#x1f4b6;",
  "credit card": "&#x1f4b3;",
  "money with wings": "&#x1f4b8;",
  "e-mail": "&#x1f4e7;",
  "inbox tray": "&#x1f4e5;",
  "outbox tray": "&#x1f4e4;",
  "incoming envelope": "&#x1f4e8;",
  "postal horn": "&#x1f4ef;",
  "mailbox closed": "&#x1f4ea;",
  "mailbox with mail": "&#x1f4ec;",
  "mailbox with no mail": "&#x1f4ed;",
  "package": "&#x1f4e6;",
  "door": "&#x1f6aa;",
  "smoking": "&#x1f6ac;",
  "bomb": "&#x1f4a3;",
  "gun": "&#x1f52b;",
  "hocho": "&#x1f52a;",
  "pill": "&#x1f48a;",
  "syringe": "&#x1f489;",
  "page facing up": "&#x1f4c4;",
  "page with curl": "&#x1f4c3;",
  "bookmark tabs": "&#x1f4d1;",
  "bar chart": "&#x1f4ca;",
  "chart with upwards trend": "&#x1f4c8;",
  "chart with downwards trend": "&#x1f4c9;",
  "scroll": "&#x1f4dc;",
  "clipboard": "&#x1f4cb;",
  "calendar": "&#x1f4c6;",
  "date": "&#x1f4c5;",
  "card index": "&#x1f4c7;",
  "file folder": "&#x1f4c1;",
  "open file folder": "&#x1f4c2;",
  "scissors": "&#x2702;",
  "pushpin": "&#x1f4cc;",
  "paperclip": "&#x1f4ce;",
  "black nib": "&#x2712;",
  "pencil2": "&#x270f;",
  "straight ruler": "&#x1f4cf;",
  "triangular ruler": "&#x1f4d0;",
  "closed book": "&#x1f4d5;",
  "green book": "&#x1f4d7;",
  "blue book": "&#x1f4d8;",
  "orange book": "&#x1f4d9;",
  "notebook": "&#x1f4d3;",
  "notebook with decorative cover": "&#x1f4d4;",
  "ledger": "&#x1f4d2;",
  "books": "&#x1f4da;",
  "bookmark": "&#x1f516;",
  "name badge": "&#x1f4db;",
  "microscope": "&#x1f52c;",
  "telescope": "&#x1f52d;",
  "newspaper": "&#x1f4f0;",
  "football": "&#x1f3c8;",
  "basketball": "&#x1f3c0;",
  "soccer": "&#x26bd;",
  "baseball": "&#x26be;",
  "tennis": "&#x1f3be;",
  "8ball": "&#x1f3b1;",
  "rugby football": "&#x1f3c9;",
  "bowling": "&#x1f3b3;",
  "golf": "&#x26f3;",
  "mountain biking man": "&#x1f6b5;",
  "biking man": "&#x1f6b4;",
  "horse racing": "&#x1f3c7;",
  "snowboarder": "&#x1f3c2;",
  "swimming man": "&#x1f3ca;",
  "surfing man": "&#x1f3c4;",
  "ski": "&#x1f3bf;",
  "spades": "&#x2660;",
  "hearts": "&#x2665;",
  "clubs": "&#x2663;",
  "diamonds": "&#x2666;",
  "gem": "&#x1f48e;",
  "ring": "&#x1f48d;",
  "trophy": "&#x1f3c6;",
  "musical score": "&#x1f3bc;",
  "musical keyboard": "&#x1f3b9;",
  "violin": "&#x1f3bb;",
  "space invader": "&#x1f47e;",
  "video game": "&#x1f3ae;",
  "black joker": "&#x1f0cf;",
  "flower playing cards": "&#x1f3b4;",
  "game die": "&#x1f3b2;",
  "mahjong": "&#x1f004;",
  "clapper": "&#x1f3ac;",
  "memo": "&#x1f4dd;",
  "book": "&#x1f4d6;",
  "art": "&#x1f3a8;",
  "microphone": "&#x1f3a4;",
  "headphones": "&#x1f3a7;",
  "trumpet": "&#x1f3ba;",
  "saxophone": "&#x1f3b7;",
  "guitar": "&#x1f3b8;",
  "mans shoe": "&#x1f45e;",
  "sandal": "&#x1f461;",
  "high heel": "&#x1f460;",
  "lipstick": "&#x1f484;",
  "boot": "&#x1f462;",
  "shirt": "&#x1f455;",
  "necktie": "&#x1f454;",
  "womans clothes": "&#x1f45a;",
  "dress": "&#x1f457;",
  "running shirt with sash": "&#x1f3bd;",
  "jeans": "&#x1f456;",
  "kimono": "&#x1f458;",
  "bikini": "&#x1f459;",
  "ribbon": "&#x1f380;",
  "tophat": "&#x1f3a9;",
  "crown": "&#x1f451;",
  "womans hat": "&#x1f452;",
  "closed umbrella": "&#x1f302;",
  "briefcase": "&#x1f4bc;",
  "handbag": "&#x1f45c;",
  "pouch": "&#x1f45d;",
  "purse": "&#x1f45b;",
  "eyeglasses": "&#x1f453;",
  "fishing pole and fish": "&#x1f3a3;",
  "coffee": "&#x2615;",
  "tea": "&#x1f375;",
  "sake": "&#x1f376;",
  "baby bottle": "&#x1f37c;",
  "beer": "&#x1f37a;",
  "beers": "&#x1f37b;",
  "cocktail": "&#x1f378;",
  "tropical drink": "&#x1f379;",
  "wine glass": "&#x1f377;",
  "fork and knife": "&#x1f374;",
  "pizza": "&#x1f355;",
  "hamburger": "&#x1f354;",
  "fries": "&#x1f35f;",
  "poultry leg": "&#x1f357;",
  "meat on bone": "&#x1f356;",
  "spaghetti": "&#x1f35d;",
  "curry": "&#x1f35b;",
  "fried shrimp": "&#x1f364;",
  "bento": "&#x1f371;",
  "sushi": "&#x1f363;",
  "fish cake": "&#x1f365;",
  "rice ball": "&#x1f359;",
  "rice cracker": "&#x1f358;",
  "rice": "&#x1f35a;",
  "ramen": "&#x1f35c;",
  "stew": "&#x1f372;",
  "oden": "&#x1f362;",
  "dango": "&#x1f361;",
  "egg": "&#x1f95a;",
  "bread": "&#x1f35e;",
  "doughnut": "&#x1f369;",
  "custard": "&#x1f36e;",
  "icecream": "&#x1f366;",
  "ice cream": "&#x1f368;",
  "shaved ice": "&#x1f367;",
  "birthday": "&#x1f382;",
  "cake": "&#x1f370;",
  "cookie": "&#x1f36a;",
  "chocolate bar": "&#x1f36b;",
  "candy": "&#x1f36c;",
  "lollipop": "&#x1f36d;",
  "honey pot": "&#x1f36f;",
  "apple": "&#x1f34e;",
  "green apple": "&#x1f34f;",
  "tangerine": "&#x1f34a;",
  "lemon": "&#x1f34b;",
  "cherries": "&#x1f352;",
  "grapes": "&#x1f347;",
  "watermelon": "&#x1f349;",
  "strawberry": "&#x1f353;",
  "peach": "&#x1f351;",
  "melon": "&#x1f348;",
  "banana": "&#x1f34c;",
  "pear": "&#x1f350;",
  "pineapple": "&#x1f34d;",
  "sweet potato": "&#x1f360;",
  "eggplant": "&#x1f346;",
  "tomato": "&#x1f345;",
  "corn": "&#x1f33d;",
  "house with garden": "&#x1f3e1;",
  "school": "&#x1f3eb;",
  "office": "&#x1f3e2;",
  "post office": "&#x1f3e3;",
  "hospital": "&#x1f3e5;",
  "bank": "&#x1f3e6;",
  "convenience store": "&#x1f3ea;",
  "love hotel": "&#x1f3e9;",
  "hotel": "&#x1f3e8;",
  "wedding": "&#x1f492;",
  "church": "&#x26ea;",
  "department store": "&#x1f3ec;",
  "european post office": "&#x1f3e4;",
  "city sunrise": "&#x1f307;",
  "city sunset": "&#x1f306;",
  "japanese castle": "&#x1f3ef;",
  "european castle": "&#x1f3f0;",
  "tent": "&#x26fa;",
  "factory": "&#x1f3ed;",
  "tokyo tower": "&#x1f5fc;",
  "japan": "&#x1f5fe;",
  "mount fuji": "&#x1f5fb;",
  "sunrise over mountains": "&#x1f304;",
  "sunrise": "&#x1f305;",
  "stars": "&#x1f320;",
  "statue of liberty": "&#x1f5fd;",
  "bridge at night": "&#x1f309;",
  "carousel horse": "&#x1f3a0;",
  "rainbow": "&#x1f308;",
  "ferris wheel": "&#x1f3a1;",
  "fountain": "&#x26f2;",
  "roller coaster": "&#x1f3a2;",
  "ship": "&#x1f6a2;",
  "speedboat": "&#x1f6a4;",
  "boat": "&#x26f5;",
  "rowing man": "&#x1f6a3;",
  "anchor": "&#x2693;",
  "rocket": "&#x1f680;",
  "airplane": "&#x2708;",
  "helicopter": "&#x1f681;",
  "steam locomotive": "&#x1f682;",
  "tram": "&#x1f68a;",
  "mountain railway": "&#x1f69e;",
  "bike": "&#x1f6b2;",
  "aerial tramway": "&#x1f6a1;",
  "suspension railway": "&#x1f69f;",
  "mountain cableway": "&#x1f6a0;",
  "tractor": "&#x1f69c;",
  "blue car": "&#x1f699;",
  "oncoming automobile": "&#x1f698;",
  "car": "&#x1f697;",
  "taxi": "&#x1f695;",
  "oncoming taxi": "&#x1f696;",
  "articulated lorry": "&#x1f69b;",
  "bus": "&#x1f68c;",
  "oncoming bus": "&#x1f68d;",
  "rotating light": "&#x1f6a8;",
  "police car": "&#x1f693;",
  "oncoming police car": "&#x1f694;",
  "fire engine": "&#x1f692;",
  "ambulance": "&#x1f691;",
  "minibus": "&#x1f690;",
  "truck": "&#x1f69a;",
  "train": "&#x1f68b;",
  "station": "&#x1f689;",
  "train2": "&#x1f686;",
  "bullettrain front": "&#x1f685;",
  "bullettrain side": "&#x1f684;",
  "light rail": "&#x1f688;",
  "monorail": "&#x1f69d;",
  "railway car": "&#x1f683;",
  "trolleybus": "&#x1f68e;",
  "ticket": "&#x1f3ab;",
  "fuelpump": "&#x26fd;",
  "vertical traffic light": "&#x1f6a6;",
  "traffic light": "&#x1f6a5;",
  "warning": "&#x26a0;",
  "construction": "&#x1f6a7;",
  "beginner": "&#x1f530;",
  "atm": "&#x1f3e7;",
  "slot machine": "&#x1f3b0;",
  "busstop": "&#x1f68f;",
  "barber": "&#x1f488;",
  "hotsprings": "&#x2668;",
  "checkered flag": "&#x1f3c1;",
  "crossed flags": "&#x1f38c;",
  "izakaya lantern": "&#x1f3ee;",
  "moyai": "&#x1f5ff;",
  "circus tent": "&#x1f3aa;",
  "performing arts": "&#x1f3ad;",
  "round pushpin": "&#x1f4cd;",
  "triangular flag on post": "&#x1f6a9;",
  "jp": "&#x1f1ef-1f1f5;",
  "kr": "&#x1f1f0-1f1f7;",
  "cn": "&#x1f1e8-1f1f3;",
  "us": "&#x1f1fa-1f1f8;",
  "fr": "&#x1f1eb-1f1f7;",
  "es": "&#x1f1ea-1f1f8;",
  "it": "&#x1f1ee-1f1f9;",
  "ru": "&#x1f1f7-1f1fa;",
  "gb": "&#x1f1ec-1f1e7;",
  "de": "&#x1f1e9-1f1ea;",
  "one": "&#x0031-20e3;",
  "two": "&#x0032-20e3;",
  "three": "&#x0033-20e3;",
  "four": "&#x0034-20e3;",
  "five": "&#x0035-20e3;",
  "six": "&#x0036-20e3;",
  "seven": "&#x0037-20e3;",
  "eight": "&#x0038-20e3;",
  "nine": "&#x0039-20e3;",
  "keycap ten": "&#x1f51f;",
  "zero": "&#x0030-20e3;",
  "hash": "&#x0023-20e3;",
  "symbols": "&#x1f523;",
  "arrow backward": "&#x25c0;",
  "arrow down": "&#x2b07;",
  "arrow forward": "&#x25b6;",
  "arrow left": "&#x2b05;",
  "capital abcd": "&#x1f520;",
  "abcd": "&#x1f521;",
  "abc": "&#x1f524;",
  "arrow lower left": "&#x2199;",
  "arrow lower right": "&#x2198;",
  "arrow right": "&#x27a1;",
  "arrow up": "&#x2b06;",
  "arrow upper left": "&#x2196;",
  "arrow upper right": "&#x2197;",
  "arrow double down": "&#x23ec;",
  "arrow double up": "&#x23eb;",
  "arrow down small": "&#x1f53d;",
  "arrow heading down": "&#x2935;",
  "arrow heading up": "&#x2934;",
  "leftwards arrow with hook": "&#x21a9;",
  "arrow right hook": "&#x21aa;",
  "left right arrow": "&#x2194;",
  "arrow up down": "&#x2195;",
  "arrow up small": "&#x1f53c;",
  "arrows clockwise": "&#x1f503;",
  "arrows counterclockwise": "&#x1f504;",
  "rewind": "&#x23ea;",
  "fast forward": "&#x23e9;",
  "information source": "&#x2139;",
  "ok": "&#x1f197;",
  "twisted rightwards arrows": "&#x1f500;",
  "repeat": "&#x1f501;",
  "repeat one": "&#x1f502;",
  "new": "&#x1f195;",
  "top": "&#x1f51d;",
  "up": "&#x1f199;",
  "cool": "&#x1f192;",
  "free": "&#x1f193;",
  "ng": "&#x1f196;",
  "cinema": "&#x1f3a6;",
  "koko": "&#x1f201;",
  "signal strength": "&#x1f4f6;",
  "u5272": "&#x1f239;",
  "u5408": "&#x1f234;",
  "u55b6": "&#x1f23a;",
  "u6307": "&#x1f22f;",
  "u6708": "&#x1f237;",
  "u6709": "&#x1f236;",
  "u6e80": "&#x1f235;",
  "u7121": "&#x1f21a;",
  "u7533": "&#x1f238;",
  "u7a7a": "&#x1f233;",
  "u7981": "&#x1f232;",
  "sa": "&#x1f202;",
  "restroom": "&#x1f6bb;",
  "mens": "&#x1f6b9;",
  "womens": "&#x1f6ba;",
  "baby symbol": "&#x1f6bc;",
  "no smoking": "&#x1f6ad;",
  "parking": "&#x1f17f;",
  "wheelchair": "&#x267f;",
  "metro": "&#x1f687;",
  "baggage claim": "&#x1f6c4;",
  "accept": "&#x1f251;",
  "wc": "&#x1f6be;",
  "potable water": "&#x1f6b0;",
  "put litter in its place": "&#x1f6ae;",
  "secret": "&#x3299;",
  "congratulations": "&#x3297;",
  "m": "&#x24c2;",
  "passport control": "&#x1f6c2;",
  "left luggage": "&#x1f6c5;",
  "customs": "&#x1f6c3;",
  "ideograph advantage": "&#x1f250;",
  "cl": "&#x1f191;",
  "sos": "&#x1f198;",
  "id": "&#x1f194;",
  "no entry sign": "&#x1f6ab;",
  "underage": "&#x1f51e;",
  "no mobile phones": "&#x1f4f5;",
  "do not litter": "&#x1f6af;",
  "non-potable water": "&#x1f6b1;",
  "no bicycles": "&#x1f6b3;",
  "no pedestrians": "&#x1f6b7;",
  "children crossing": "&#x1f6b8;",
  "no entry": "&#x26d4;",
  "eight spoked asterisk": "&#x2733;",
  "sparkle": "&#x2747;",
  "eight pointed black star": "&#x2734;",
  "heart decoration": "&#x1f49f;",
  "vs": "&#x1f19a;",
  "vibration mode": "&#x1f4f3;",
  "mobile phone off": "&#x1f4f4;",
  "chart": "&#x1f4b9;",
  "currency exchange": "&#x1f4b1;",
  "aries": "&#x2648;",
  "taurus": "&#x2649;",
  "gemini": "&#x264a;",
  "cancer": "&#x264b;",
  "leo": "&#x264c;",
  "virgo": "&#x264d;",
  "libra": "&#x264e;",
  "scorpius": "&#x264f;",
  "sagittarius": "&#x2650;",
  "capricorn": "&#x2651;",
  "aquarius": "&#x2652;",
  "pisces": "&#x2653;",
  "ophiuchus": "&#x26ce;",
  "six pointed star": "&#x1f52f;",
  "negative squared cross mark": "&#x274e;",
  "a": "&#x1f170;",
  "b": "&#x1f171;",
  "ab": "&#x1f18e;",
  "o2": "&#x1f17e;",
  "diamond shape with a dot inside": "&#x1f4a0;",
  "recycle": "&#x267b;",
  "end": "&#x1f51a;",
  "back": "&#x1f519;",
  "on": "&#x1f51b;",
  "soon": "&#x1f51c;",
  "clock1": "&#x1f550;",
  "clock130": "&#x1f55c;",
  "clock10": "&#x1f559;",
  "clock1030": "&#x1f565;",
  "clock11": "&#x1f55a;",
  "clock1130": "&#x1f566;",
  "clock12": "&#x1f55b;",
  "clock1230": "&#x1f567;",
  "clock2": "&#x1f551;",
  "clock230": "&#x1f55d;",
  "clock3": "&#x1f552;",
  "clock330": "&#x1f55e;",
  "clock4": "&#x1f553;",
  "clock430": "&#x1f55f;",
  "clock5": "&#x1f554;",
  "clock530": "&#x1f560;",
  "clock6": "&#x1f555;",
  "clock630": "&#x1f561;",
  "clock7": "&#x1f556;",
  "clock730": "&#x1f562;",
  "clock8": "&#x1f557;",
  "clock830": "&#x1f563;",
  "clock9": "&#x1f558;",
  "clock930": "&#x1f564;",
  "heavy dollar sign": "&#x1f4b2;",
  "copyright": "&#x00a9;",
  "registered": "&#x00ae;",
  "tm": "&#x2122;",
  "x": "&#x274c;",
  "bangbang": "&#x203c;",
  "interrobang": "&#x2049;",
  "o": "&#x2b55;",
  "heavy multiplication x": "&#x2716;",
  "heavy plus sign": "&#x2795;",
  "heavy minus sign": "&#x2796;",
  "heavy division sign": "&#x2797;",
  "white flower": "&#x1f4ae;",
  "heavy check mark": "&#x2714;",
  "ballot box with check": "&#x2611;",
  "radio button": "&#x1f518;",
  "link": "&#x1f517;",
  "curly loop": "&#x27b0;",
  "wavy dash": "&#x3030;",
  "part alternation mark": "&#x303d;",
  "trident": "&#x1f531;",
  "black small square": "&#x25aa;",
  "white small square": "&#x25ab;",
  "black medium small square": "&#x25fe;",
  "white medium small square": "&#x25fd;",
  "black medium square": "&#x25fc;",
  "white medium square": "&#x25fb;",
  "black large square": "&#x2b1b;",
  "white large square": "&#x2b1c;",
  "white check mark": "&#x2705;",
  "black square button": "&#x1f532;",
  "white square button": "&#x1f533;",
  "black circle": "&#x26ab;",
  "white circle": "&#x26aa;",
  "red circle": "&#x1f534;",
  "large blue circle": "&#x1f535;",
  "large blue diamond": "&#x1f537;",
  "large orange diamond": "&#x1f536;",
  "small blue diamond": "&#x1f539;",
  "small orange diamond": "&#x1f538;",
  "small red triangle": "&#x1f53a;",
  "small red triangle down": "&#x1f53b;",
  "1st place medal": "&#x1f947;",
  "2nd place medal": "&#x1f948;",
  "3rd place medal": "&#x1f949;",
  "afghanistan": "&#x1f1e6-1f1eb;",
  "aland islands": "&#x1f1e6-1f1fd;",
  "albania": "&#x1f1e6-1f1f1;",
  "alembic": "&#x2697;",
  "algeria": "&#x1f1e9-1f1ff;",
  "american samoa": "&#x1f1e6-1f1f8;",
  "amphora": "&#x1f3fa;",
  "andorra": "&#x1f1e6-1f1e9;",
  "angola": "&#x1f1e6-1f1f4;",
  "anguilla": "&#x1f1e6-1f1ee;",
  "antarctica": "&#x1f1e6-1f1f6;",
  "antigua barbuda": "&#x1f1e6-1f1ec;",
  "argentina": "&#x1f1e6-1f1f7;",
  "armenia": "&#x1f1e6-1f1f2;",
  "artificial satellite": "&#x1f6f0;",
  "aruba": "&#x1f1e6-1f1fc;",
  "asterisk": "&#x002a-20e3;",
  "athletic shoe": "&#x1f45f;",
  "atom symbol": "&#x269b;",
  "australia": "&#x1f1e6-1f1fa;",
  "austria": "&#x1f1e6-1f1f9;",
  "avocado": "&#x1f951;",
  "azerbaijan": "&#x1f1e6-1f1ff;",
  "bacon": "&#x1f953;",
  "badminton": "&#x1f3f8;",
  "baguette bread": "&#x1f956;",
  "bahamas": "&#x1f1e7-1f1f8;",
  "bahrain": "&#x1f1e7-1f1ed;",
  "balance scale": "&#x2696;",
  "ballot box": "&#x1f5f3;",
  "bangladesh": "&#x1f1e7-1f1e9;",
  "barbados": "&#x1f1e7-1f1e7;",
  "basketball man": "&#x26f9;",
  "basketball woman": "&#x26f9-2640;",
  "bat": "&#x1f987;",
  "beach umbrella": "&#x1f3d6;",
  "bed": "&#x1f6cf;",
  "belarus": "&#x1f1e7-1f1fe;",
  "belgium": "&#x1f1e7-1f1ea;",
  "belize": "&#x1f1e7-1f1ff;",
  "bellhop bell": "&#x1f6ce;",
  "benin": "&#x1f1e7-1f1ef;",
  "bermuda": "&#x1f1e7-1f1f2;",
  "bhutan": "&#x1f1e7-1f1f9;",
  "biking woman": "&#x1f6b4-2640;",
  "biohazard": "&#x2623;",
  "black flag": "&#x1f3f4;",
  "black heart": "&#x1f5a4;",
  "blonde woman": "&#x1f471-2640;",
  "bolivia": "&#x1f1e7-1f1f4;",
  "bosnia herzegovina": "&#x1f1e7-1f1e6;",
  "botswana": "&#x1f1e7-1f1fc;",
  "bow and arrow": "&#x1f3f9;",
  "bowing woman": "&#x1f647-2640;",
  "boxing glove": "&#x1f94a;",
  "brazil": "&#x1f1e7-1f1f7;",
  "british indian ocean territory": "&#x1f1ee-1f1f4;",
  "british virgin islands": "&#x1f1fb-1f1ec;",
  "brunei": "&#x1f1e7-1f1f3;",
  "building construction": "&#x1f3d7;",
  "bulgaria": "&#x1f1e7-1f1ec;",
  "burkina faso": "&#x1f1e7-1f1eb;",
  "burrito": "&#x1f32f;",
  "burundi": "&#x1f1e7-1f1ee;",
  "business suit levitating": "&#x1f574;",
  "butterfly": "&#x1f98b;",
  "call me hand": "&#x1f919;",
  "cambodia": "&#x1f1f0-1f1ed;",
  "camera flash": "&#x1f4f8;",
  "cameroon": "&#x1f1e8-1f1f2;",
  "camping": "&#x1f3d5;",
  "canada": "&#x1f1e8-1f1e6;",
  "canary islands": "&#x1f1ee-1f1e8;",
  "candle": "&#x1f56f;",
  "canoe": "&#x1f6f6;",
  "cape verde": "&#x1f1e8-1f1fb;",
  "card file box": "&#x1f5c3;",
  "card index dividers": "&#x1f5c2;",
  "caribbean netherlands": "&#x1f1e7-1f1f6;",
  "carrot": "&#x1f955;",
  "cayman islands": "&#x1f1f0-1f1fe;",
  "central african republic": "&#x1f1e8-1f1eb;",
  "chad": "&#x1f1f9-1f1e9;",
  "chains": "&#x26d3;",
  "champagne": "&#x1f37e;",
  "cheese": "&#x1f9c0;",
  "chile": "&#x1f1e8-1f1f1;",
  "chipmunk": "&#x1f43f;",
  "christmas island": "&#x1f1e8-1f1fd;",
  "cityscape": "&#x1f3d9;",
  "clamp": "&#x1f5dc;",
  "classical building": "&#x1f3db;",
  "clinking glasses": "&#x1f942;",
  "cloud with lightning": "&#x1f329;",
  "cloud with lightning and rain": "&#x26c8;",
  "cloud with rain": "&#x1f327;",
  "cloud with snow": "&#x1f328;",
  "clown face": "&#x1f921;",
  "cocos islands": "&#x1f1e8-1f1e8;",
  "coffin": "&#x26b0;",
  "colombia": "&#x1f1e8-1f1f4;",
  "comet": "&#x2604;",
  "comoros": "&#x1f1f0-1f1f2;",
  "computer mouse": "&#x1f5b1;",
  "congo brazzaville": "&#x1f1e8-1f1ec;",
  "congo kinshasa": "&#x1f1e8-1f1e9;",
  "construction worker woman": "&#x1f477-2640;",
  "control knobs": "&#x1f39b;",
  "cook islands": "&#x1f1e8-1f1f0;",
  "costa rica": "&#x1f1e8-1f1f7;",
  "cote divoire": "&#x1f1e8-1f1ee;",
  "couch and lamp": "&#x1f6cb;",
  "couple with heart man man": "&#x1f468-2764-1f468;",
  "couple with heart woman woman": "&#x1f469-2764-1f469;",
  "couplekiss man man": "&#x1f468-2764-1f48b-1f468;",
  "couplekiss man woman": "&#x1f48f;",
  "couplekiss woman woman": "&#x1f469-2764-1f48b-1f469;",
  "cowboy hat face": "&#x1f920;",
  "crab": "&#x1f980;",
  "crayon": "&#x1f58d;",
  "cricket": "&#x1f3cf;",
  "croatia": "&#x1f1ed-1f1f7;",
  "croissant": "&#x1f950;",
  "crossed fingers": "&#x1f91e;",
  "crossed swords": "&#x2694;",
  "cuba": "&#x1f1e8-1f1fa;",
  "cucumber": "&#x1f952;",
  "curacao": "&#x1f1e8-1f1fc;",
  "cyprus": "&#x1f1e8-1f1fe;",
  "czech republic": "&#x1f1e8-1f1ff;",
  "dagger": "&#x1f5e1;",
  "dancing men": "&#x1f46f-2642;",
  "deer": "&#x1f98c;",
  "denmark": "&#x1f1e9-1f1f0;",
  "derelict house": "&#x1f3da;",
  "desert": "&#x1f3dc;",
  "desert island": "&#x1f3dd;",
  "desktop computer": "&#x1f5a5;",
  "male detective": "&#x1f575;",
  "djibouti": "&#x1f1e9-1f1ef;",
  "dominica": "&#x1f1e9-1f1f2;",
  "dominican republic": "&#x1f1e9-1f1f4;",
  "dove": "&#x1f54a;",
  "drooling face": "&#x1f924;",
  "drum": "&#x1f941;",
  "duck": "&#x1f986;",
  "eagle": "&#x1f985;",
  "ecuador": "&#x1f1ea-1f1e8;",
  "egypt": "&#x1f1ea-1f1ec;",
  "el salvador": "&#x1f1f8-1f1fb;",
  "envelope with arrow": "&#x1f4e9;",
  "equatorial guinea": "&#x1f1ec-1f1f6;",
  "eritrea": "&#x1f1ea-1f1f7;",
  "estonia": "&#x1f1ea-1f1ea;",
  "ethiopia": "&#x1f1ea-1f1f9;",
  "eu": "&#x1f1ea-1f1fa;",
  "eye": "&#x1f441;",
  "eye speech bubble": "&#x1f441-1f5e8;",
  "face with head bandage": "&#x1f915;",
  "falkland islands": "&#x1f1eb-1f1f0;",
  "family man boy": "&#x1f468-1f466;",
  "family man boy boy": "&#x1f468-1f466-1f466;",
  "family man girl": "&#x1f468-1f467;",
  "family man girl boy": "&#x1f468-1f467-1f466;",
  "family man girl girl": "&#x1f468-1f467-1f467;",
  "family man man boy": "&#x1f468-1f468-1f466;",
  "family man man boy boy": "&#x1f468-1f468-1f466-1f466;",
  "family man man girl": "&#x1f468-1f468-1f467;",
  "family man man girl boy": "&#x1f468-1f468-1f467-1f466;",
  "family man man girl girl": "&#x1f468-1f468-1f467-1f467;",
  "family man woman boy boy": "&#x1f468-1f469-1f466-1f466;",
  "family man woman girl": "&#x1f468-1f469-1f467;",
  "family man woman girl boy": "&#x1f468-1f469-1f467-1f466;",
  "family man woman girl girl": "&#x1f468-1f469-1f467-1f467;",
  "family woman boy": "&#x1f469-1f466;",
  "family woman boy boy": "&#x1f469-1f466-1f466;",
  "family woman girl": "&#x1f469-1f467;",
  "family woman girl boy": "&#x1f469-1f467-1f466;",
  "family woman girl girl": "&#x1f469-1f467-1f467;",
  "family woman woman boy": "&#x1f469-1f469-1f466;",
  "family woman woman boy boy": "&#x1f469-1f469-1f466-1f466;",
  "family woman woman girl": "&#x1f469-1f469-1f467;",
  "family woman woman girl boy": "&#x1f469-1f469-1f467-1f466;",
  "family woman woman girl girl": "&#x1f469-1f469-1f467-1f467;",
  "faroe islands": "&#x1f1eb-1f1f4;",
  "female detective": "&#x1f575-2640;",
  "ferry": "&#x26f4;",
  "field hockey": "&#x1f3d1;",
  "fiji": "&#x1f1eb-1f1ef;",
  "file cabinet": "&#x1f5c4;",
  "film projector": "&#x1f4fd;",
  "film strip": "&#x1f39e;",
  "finland": "&#x1f1eb-1f1ee;",
  "fist left": "&#x1f91b;",
  "fist right": "&#x1f91c;",
  "fleur de lis": "&#x269c;",
  "flight arrival": "&#x1f6ec;",
  "flight departure": "&#x1f6eb;",
  "fog": "&#x1f32b;",
  "footprints": "&#x1f463;",
  "fountain pen": "&#x1f58b;",
  "fox face": "&#x1f98a;",
  "framed picture": "&#x1f5bc;",
  "french guiana": "&#x1f1ec-1f1eb;",
  "french polynesia": "&#x1f1f5-1f1eb;",
  "french southern territories": "&#x1f1f9-1f1eb;",
  "fried egg": "&#x1f373;",
  "frowning face": "&#x2639;",
  "frowning man": "&#x1f64d-2642;",
  "funeral urn": "&#x26b1;",
  "gabon": "&#x1f1ec-1f1e6;",
  "gambia": "&#x1f1ec-1f1f2;",
  "gear": "&#x2699;",
  "georgia": "&#x1f1ec-1f1ea;",
  "ghana": "&#x1f1ec-1f1ed;",
  "gibraltar": "&#x1f1ec-1f1ee;",
  "goal net": "&#x1f945;",
  "golfing man": "&#x1f3cc;",
  "golfing woman": "&#x1f3cc-2640;",
  "gorilla": "&#x1f98d;",
  "greece": "&#x1f1ec-1f1f7;",
  "green salad": "&#x1f957;",
  "greenland": "&#x1f1ec-1f1f1;",
  "grenada": "&#x1f1ec-1f1e9;",
  "guadeloupe": "&#x1f1ec-1f1f5;",
  "guam": "&#x1f1ec-1f1fa;",
  "guardswoman": "&#x1f482-2640;",
  "guatemala": "&#x1f1ec-1f1f9;",
  "guernsey": "&#x1f1ec-1f1ec;",
  "guinea": "&#x1f1ec-1f1f3;",
  "guinea bissau": "&#x1f1ec-1f1fc;",
  "guyana": "&#x1f1ec-1f1fe;",
  "haircut man": "&#x1f487-2642;",
  "haiti": "&#x1f1ed-1f1f9;",
  "hammer and pick": "&#x2692;",
  "hammer and wrench": "&#x1f6e0;",
  "handshake": "&#x1f91d;",
  "heavy heart exclamation": "&#x2763;",
  "hole": "&#x1f573;",
  "honduras": "&#x1f1ed-1f1f3;",
  "hong kong": "&#x1f1ed-1f1f0;",
  "hot pepper": "&#x1f336;",
  "hotdog": "&#x1f32d;",
  "houses": "&#x1f3d8;",
  "hugs": "&#x1f917;",
  "hungary": "&#x1f1ed-1f1fa;",
  "ice hockey": "&#x1f3d2;",
  "ice skate": "&#x26f8;",
  "iceland": "&#x1f1ee-1f1f8;",
  "india": "&#x1f1ee-1f1f3;",
  "indonesia": "&#x1f1ee-1f1e9;",
  "iran": "&#x1f1ee-1f1f7;",
  "iraq": "&#x1f1ee-1f1f6;",
  "ireland": "&#x1f1ee-1f1ea;",
  "isle of man": "&#x1f1ee-1f1f2;",
  "israel": "&#x1f1ee-1f1f1;",
  "jamaica": "&#x1f1ef-1f1f2;",
  "jersey": "&#x1f1ef-1f1ea;",
  "jordan": "&#x1f1ef-1f1f4;",
  "joystick": "&#x1f579;",
  "kaaba": "&#x1f54b;",
  "kazakhstan": "&#x1f1f0-1f1ff;",
  "kenya": "&#x1f1f0-1f1ea;",
  "keyboard": "&#x2328;",
  "kick scooter": "&#x1f6f4;",
  "kiribati": "&#x1f1f0-1f1ee;",
  "kiwi fruit": "&#x1f95d;",
  "kosovo": "&#x1f1fd-1f1f0;",
  "kuwait": "&#x1f1f0-1f1fc;",
  "kyrgyzstan": "&#x1f1f0-1f1ec;",
  "label": "&#x1f3f7;",
  "laos": "&#x1f1f1-1f1e6;",
  "latin cross": "&#x271d;",
  "latvia": "&#x1f1f1-1f1fb;",
  "lebanon": "&#x1f1f1-1f1e7;",
  "lesotho": "&#x1f1f1-1f1f8;",
  "level slider": "&#x1f39a;",
  "liberia": "&#x1f1f1-1f1f7;",
  "libya": "&#x1f1f1-1f1fe;",
  "liechtenstein": "&#x1f1f1-1f1ee;",
  "lion": "&#x1f981;",
  "lithuania": "&#x1f1f1-1f1f9;",
  "lizard": "&#x1f98e;",
  "loud sound": "&#x1f50a;",
  "luxembourg": "&#x1f1f1-1f1fa;",
  "lying face": "&#x1f925;",
  "macau": "&#x1f1f2-1f1f4;",
  "macedonia": "&#x1f1f2-1f1f0;",
  "madagascar": "&#x1f1f2-1f1ec;",
  "malawi": "&#x1f1f2-1f1fc;",
  "malaysia": "&#x1f1f2-1f1fe;",
  "maldives": "&#x1f1f2-1f1fb;",
  "mali": "&#x1f1f2-1f1f1;",
  "malta": "&#x1f1f2-1f1f9;",
  "man artist": "&#x1f468-1f3a8;",
  "man astronaut": "&#x1f468-1f680;",
  "man cartwheeling": "&#x1f938-2642;",
  "man cook": "&#x1f468-1f373;",
  "man dancing": "&#x1f57a;",
  "man facepalming": "&#x1f926-2642;",
  "man factory worker": "&#x1f468-1f3ed;",
  "man farmer": "&#x1f468-1f33e;",
  "man firefighter": "&#x1f468-1f692;",
  "man health worker": "&#x1f468-2695;",
  "man in tuxedo": "&#x1f935;",
  "man judge": "&#x1f468-2696;",
  "man juggling": "&#x1f939-2642;",
  "man mechanic": "&#x1f468-1f527;",
  "man office worker": "&#x1f468-1f4bc;",
  "man pilot": "&#x1f468-2708;",
  "man playing handball": "&#x1f93e-2642;",
  "man playing water polo": "&#x1f93d-2642;",
  "man scientist": "&#x1f468-1f52c;",
  "man shrugging": "&#x1f937-2642;",
  "man singer": "&#x1f468-1f3a4;",
  "man student": "&#x1f468-1f393;",
  "man teacher": "&#x1f468-1f3eb;",
  "man technologist": "&#x1f468-1f4bb;",
  "mantelpiece clock": "&#x1f570;",
  "marshall islands": "&#x1f1f2-1f1ed;",
  "martial arts uniform": "&#x1f94b;",
  "martinique": "&#x1f1f2-1f1f6;",
  "massage man": "&#x1f486-2642;",
  "mauritania": "&#x1f1f2-1f1f7;",
  "mauritius": "&#x1f1f2-1f1fa;",
  "mayotte": "&#x1f1fe-1f1f9;",
  "medal military": "&#x1f396;",
  "medal sports": "&#x1f3c5;",
  "men wrestling": "&#x1f93c-2642;",
  "menorah": "&#x1f54e;",
  "mexico": "&#x1f1f2-1f1fd;",
  "micronesia": "&#x1f1eb-1f1f2;",
  "milk glass": "&#x1f95b;",
  "moldova": "&#x1f1f2-1f1e9;",
  "monaco": "&#x1f1f2-1f1e8;",
  "money mouth face": "&#x1f911;",
  "mongolia": "&#x1f1f2-1f1f3;",
  "montenegro": "&#x1f1f2-1f1ea;",
  "montserrat": "&#x1f1f2-1f1f8;",
  "morocco": "&#x1f1f2-1f1e6;",
  "mosque": "&#x1f54c;",
  "motor boat": "&#x1f6e5;",
  "motor scooter": "&#x1f6f5;",
  "motorcycle": "&#x1f3cd;",
  "motorway": "&#x1f6e3;",
  "mountain": "&#x26f0;",
  "mountain biking woman": "&#x1f6b5-2640;",
  "mountain snow": "&#x1f3d4;",
  "mozambique": "&#x1f1f2-1f1ff;",
  "mrs claus": "&#x1f936;",
  "myanmar": "&#x1f1f2-1f1f2;",
  "namibia": "&#x1f1f3-1f1e6;",
  "national park": "&#x1f3de;",
  "nauru": "&#x1f1f3-1f1f7;",
  "nauseated face": "&#x1f922;",
  "nepal": "&#x1f1f3-1f1f5;",
  "nerd face": "&#x1f913;",
  "netherlands": "&#x1f1f3-1f1f1;",
  "new caledonia": "&#x1f1f3-1f1e8;",
  "new zealand": "&#x1f1f3-1f1ff;",
  "newspaper roll": "&#x1f5de;",
  "next track button": "&#x23ed;",
  "no good man": "&#x1f645-2642;",
  "nicaragua": "&#x1f1f3-1f1ee;",
  "niger": "&#x1f1f3-1f1ea;",
  "nigeria": "&#x1f1f3-1f1ec;",
  "night with stars": "&#x1f303;",
  "niue": "&#x1f1f3-1f1fa;",
  "norfolk island": "&#x1f1f3-1f1eb;",
  "north korea": "&#x1f1f0-1f1f5;",
  "northern mariana islands": "&#x1f1f2-1f1f5;",
  "norway": "&#x1f1f3-1f1f4;",
  "oil drum": "&#x1f6e2;",
  "ok man": "&#x1f646-2642;",
  "old key": "&#x1f5dd;",
  "om": "&#x1f549;",
  "oman": "&#x1f1f4-1f1f2;",
  "open umbrella": "&#x2602;",
  "orthodox cross": "&#x2626;",
  "owl": "&#x1f989;",
  "paintbrush": "&#x1f58c;",
  "pakistan": "&#x1f1f5-1f1f0;",
  "palau": "&#x1f1f5-1f1fc;",
  "palestinian territories": "&#x1f1f5-1f1f8;",
  "panama": "&#x1f1f5-1f1e6;",
  "pancakes": "&#x1f95e;",
  "paperclips": "&#x1f587;",
  "papua new guinea": "&#x1f1f5-1f1ec;",
  "paraguay": "&#x1f1f5-1f1fe;",
  "parasol on ground": "&#x26f1;",
  "passenger ship": "&#x1f6f3;",
  "pause button": "&#x23f8;",
  "peace symbol": "&#x262e;",
  "peanuts": "&#x1f95c;",
  "pen": "&#x1f58a;",
  "person fencing": "&#x1f93a;",
  "peru": "&#x1f1f5-1f1ea;",
  "philippines": "&#x1f1f5-1f1ed;",
  "pick": "&#x26cf;",
  "ping pong": "&#x1f3d3;",
  "pitcairn islands": "&#x1f1f5-1f1f3;",
  "place of worship": "&#x1f6d0;",
  "plate with cutlery": "&#x1f37d;",
  "play or pause button": "&#x23ef;",
  "poland": "&#x1f1f5-1f1f1;",
  "policewoman": "&#x1f46e-2640;",
  "popcorn": "&#x1f37f;",
  "portugal": "&#x1f1f5-1f1f9;",
  "potato": "&#x1f954;",
  "pouting man": "&#x1f64e-2642;",
  "prayer beads": "&#x1f4ff;",
  "pregnant woman": "&#x1f930;",
  "previous track button": "&#x23ee;",
  "prince": "&#x1f934;",
  "printer": "&#x1f5a8;",
  "puerto rico": "&#x1f1f5-1f1f7;",
  "qatar": "&#x1f1f6-1f1e6;",
  "racing car": "&#x1f3ce;",
  "radioactive": "&#x2622;",
  "railway track": "&#x1f6e4;",
  "rainbow flag": "&#x1f3f3-1f308;",
  "raised back of hand": "&#x1f91a;",
  "raised hand with fingers splayed": "&#x1f590;",
  "raising hand man": "&#x1f64b-2642;",
  "record button": "&#x23fa;",
  "reminder ribbon": "&#x1f397;",
  "rescue worker helmet": "&#x26d1;",
  "reunion": "&#x1f1f7-1f1ea;",
  "rhinoceros": "&#x1f98f;",
  "right anger bubble": "&#x1f5ef;",
  "robot": "&#x1f916;",
  "rofl": "&#x1f923;",
  "roll eyes": "&#x1f644;",
  "romania": "&#x1f1f7-1f1f4;",
  "rosette": "&#x1f3f5;",
  "rowing woman": "&#x1f6a3-2640;",
  "running woman": "&#x1f3c3-2640;",
  "rwanda": "&#x1f1f7-1f1fc;",
  "samoa": "&#x1f1fc-1f1f8;",
  "san marino": "&#x1f1f8-1f1f2;",
  "sao tome principe": "&#x1f1f8-1f1f9;",
  "saudi arabia": "&#x1f1f8-1f1e6;",
  "scorpion": "&#x1f982;",
  "selfie": "&#x1f933;",
  "senegal": "&#x1f1f8-1f1f3;",
  "serbia": "&#x1f1f7-1f1f8;",
  "seychelles": "&#x1f1f8-1f1e8;",
  "shallow pan of food": "&#x1f958;",
  "shamrock": "&#x2618;",
  "shark": "&#x1f988;",
  "shield": "&#x1f6e1;",
  "shinto shrine": "&#x26e9;",
  "shopping": "&#x1f6cd;",
  "shopping cart": "&#x1f6d2;",
  "shrimp": "&#x1f990;",
  "sierra leone": "&#x1f1f8-1f1f1;",
  "singapore": "&#x1f1f8-1f1ec;",
  "sint maarten": "&#x1f1f8-1f1fd;",
  "skier": "&#x26f7;",
  "skull and crossbones": "&#x2620;",
  "sleeping bed": "&#x1f6cc;",
  "slightly frowning face": "&#x1f641;",
  "slightly smiling face": "&#x1f642;",
  "slovakia": "&#x1f1f8-1f1f0;",
  "slovenia": "&#x1f1f8-1f1ee;",
  "small airplane": "&#x1f6e9;",
  "sneezing face": "&#x1f927;",
  "snowman with snow": "&#x2603;",
  "solomon islands": "&#x1f1f8-1f1e7;",
  "somalia": "&#x1f1f8-1f1f4;",
  "south africa": "&#x1f1ff-1f1e6;",
  "south georgia south sandwich islands": "&#x1f1ec-1f1f8;",
  "south sudan": "&#x1f1f8-1f1f8;",
  "speaking head": "&#x1f5e3;",
  "spider": "&#x1f577;",
  "spider web": "&#x1f578;",
  "spiral calendar": "&#x1f5d3;",
  "spiral notepad": "&#x1f5d2;",
  "spoon": "&#x1f944;",
  "squid": "&#x1f991;",
  "sri lanka": "&#x1f1f1-1f1f0;",
  "st barthelemy": "&#x1f1e7-1f1f1;",
  "st helena": "&#x1f1f8-1f1ed;",
  "st kitts nevis": "&#x1f1f0-1f1f3;",
  "st lucia": "&#x1f1f1-1f1e8;",
  "st pierre miquelon": "&#x1f1f5-1f1f2;",
  "st vincent grenadines": "&#x1f1fb-1f1e8;",
  "stadium": "&#x1f3df;",
  "star and crescent": "&#x262a;",
  "star of david": "&#x2721;",
  "stop button": "&#x23f9;",
  "stop sign": "&#x1f6d1;",
  "stopwatch": "&#x23f1;",
  "studio microphone": "&#x1f399;",
  "stuffed flatbread": "&#x1f959;",
  "sudan": "&#x1f1f8-1f1e9;",
  "sun behind large cloud": "&#x1f325;",
  "sun behind rain cloud": "&#x1f326;",
  "sun behind small cloud": "&#x1f324;",
  "surfing woman": "&#x1f3c4-2640;",
  "suriname": "&#x1f1f8-1f1f7;",
  "swaziland": "&#x1f1f8-1f1ff;",
  "sweden": "&#x1f1f8-1f1ea;",
  "swimming woman": "&#x1f3ca-2640;",
  "switzerland": "&#x1f1e8-1f1ed;",
  "synagogue": "&#x1f54d;",
  "syria": "&#x1f1f8-1f1fe;",
  "taco": "&#x1f32e;",
  "taiwan": "&#x1f1f9-1f1fc;",
  "tajikistan": "&#x1f1f9-1f1ef;",
  "tanzania": "&#x1f1f9-1f1ff;",
  "thailand": "&#x1f1f9-1f1ed;",
  "thermometer": "&#x1f321;",
  "thinking": "&#x1f914;",
  "tickets": "&#x1f39f;",
  "timer clock": "&#x23f2;",
  "timor leste": "&#x1f1f9-1f1f1;",
  "tipping hand man": "&#x1f481-2642;",
  "togo": "&#x1f1f9-1f1ec;",
  "tokelau": "&#x1f1f9-1f1f0;",
  "tonga": "&#x1f1f9-1f1f4;",
  "tornado": "&#x1f32a;",
  "tr": "&#x1f1f9-1f1f7;",
  "trackball": "&#x1f5b2;",
  "trinidad tobago": "&#x1f1f9-1f1f9;",
  "tumbler glass": "&#x1f943;",
  "tunisia": "&#x1f1f9-1f1f3;",
  "turkey": "&#x1f983;",
  "turkmenistan": "&#x1f1f9-1f1f2;",
  "turks caicos islands": "&#x1f1f9-1f1e8;",
  "tuvalu": "&#x1f1f9-1f1fb;",
  "uganda": "&#x1f1fa-1f1ec;",
  "ukraine": "&#x1f1fa-1f1e6;",
  "unicorn": "&#x1f984;",
  "united arab emirates": "&#x1f1e6-1f1ea;",
  "upside down face": "&#x1f643;",
  "uruguay": "&#x1f1fa-1f1fe;",
  "us virgin islands": "&#x1f1fb-1f1ee;",
  "uzbekistan": "&#x1f1fa-1f1ff;",
  "vanuatu": "&#x1f1fb-1f1fa;",
  "vatican city": "&#x1f1fb-1f1e6;",
  "venezuela": "&#x1f1fb-1f1ea;",
  "vietnam": "&#x1f1fb-1f1f3;",
  "volleyball": "&#x1f3d0;",
  "vulcan salute": "&#x1f596;",
  "walking man": "&#x1f6b6;",
  "walking woman": "&#x1f6b6-2640;",
  "wallis futuna": "&#x1f1fc-1f1eb;",
  "wastebasket": "&#x1f5d1;",
  "weight lifting man": "&#x1f3cb;",
  "weight lifting woman": "&#x1f3cb-2640;",
  "western sahara": "&#x1f1ea-1f1ed;",
  "wheel of dharma": "&#x2638;",
  "white flag": "&#x1f3f3;",
  "wilted flower": "&#x1f940;",
  "wind face": "&#x1f32c;",
  "woman artist": "&#x1f469-1f3a8;",
  "woman astronaut": "&#x1f469-1f680;",
  "woman cartwheeling": "&#x1f938-2640;",
  "woman cook": "&#x1f469-1f373;",
  "woman facepalming": "&#x1f926-2640;",
  "woman factory worker": "&#x1f469-1f3ed;",
  "woman farmer": "&#x1f469-1f33e;",
  "woman firefighter": "&#x1f469-1f692;",
  "woman health worker": "&#x1f469-2695;",
  "woman judge": "&#x1f469-2696;",
  "woman juggling": "&#x1f939-2640;",
  "woman mechanic": "&#x1f469-1f527;",
  "woman office worker": "&#x1f469-1f4bc;",
  "woman pilot": "&#x1f469-2708;",
  "woman playing handball": "&#x1f93e-2640;",
  "woman playing water polo": "&#x1f93d-2640;",
  "woman scientist": "&#x1f469-1f52c;",
  "woman shrugging": "&#x1f937-2640;",
  "woman singer": "&#x1f469-1f3a4;",
  "woman student": "&#x1f469-1f393;",
  "woman teacher": "&#x1f469-1f3eb;",
  "woman technologist": "&#x1f469-1f4bb;",
  "woman with turban": "&#x1f473-2640;",
  "women wrestling": "&#x1f93c-2640;",
  "world map": "&#x1f5fa;",
  "writing hand": "&#x270d;",
  "yemen": "&#x1f1fe-1f1ea;",
  "yin yang": "&#x262f;",
  "zambia": "&#x1f1ff-1f1f2;",
  "zimbabwe": "&#x1f1ff-1f1fc;",
  "zipper mouth face": "&#x1f910;"
}
